1;dsfadfa;dfsgd;2001-01-14;d;d;34;2021-01-13;2021-01-15
2;d;d;2021-01-14;d;d;34;2021-01-13;2021-01-15
3;ddsfas;d;2021-01-14;d;d;34;2021-01-13;2021-01-15
4;sdadfasdfsa;dfdsa;2021-01-12;aa;aa;345;2021-01-06;2019-08-22
6;ada;asd;2021-01-11;ad;ad;445;2021-01-14;2021-01-27
8;adadsaafds;asd;2021-01-11;ad;ad;445;2021-01-14;2021-01-27
9;as;fd;2021-01-08;df;34;3;2021-01-21;2021-01-21
