"1","dsfadfa","dfsgd","2021-01-14","d","d","34","2021-01-13 00:00:00","2021-01-15 03:00:00"
"2","d","d","2021-01-14","d","d","34","2021-01-13 00:00:00","2021-01-15 03:00:00"
"3","ddsfas","d","2021-01-14","d","d","34","2021-01-13 00:00:00","2021-01-15 03:00:00"
"4","sdadfasdfsa","dfdsa","2021-01-12","aa","aa","345","2021-01-06 00:30:00","2019-08-22 03:30:00"
"6","ada","asd","2021-01-11","ad","ad","445","2021-01-14 02:00:00","2021-01-27 03:30:00"
"8","adadsaafds","asd","2021-01-11","ad","ad","445","2021-01-14 02:00:00","2021-01-27 03:30:00"
"9","as","fd","2021-01-08","df","34","3","2021-01-21 02:00:00","2021-01-21 03:00:00"
